^D:\PROJECTS\CSE168\CSE168_MIRO\SRC\BLPATCH.CPP
/c /Zi /nologo /W3 /WX- /O2 /Oi /Oy- /GL /D _MBCS /Gm- /EHsc /MD /GS /Gy /fp:precise /Zc:wchar_t /Zc:forScope /openmp /Fo"Release\\" /Fd"Release\vc100.pdb" /Gd /TP /analyze- /errorReport:prompt D:\PROJECTS\CSE168\CSE168_MIRO\SRC\BLPATCH.CPP
^D:\PROJECTS\CSE168\CSE168_MIRO\SRC\BVH.CPP
/c /Zi /nologo /W3 /WX- /O2 /Oi /Oy- /GL /D _MBCS /Gm- /EHsc /MD /GS /Gy /fp:precise /Zc:wchar_t /Zc:forScope /openmp /Fo"Release\\" /Fd"Release\vc100.pdb" /Gd /TP /analyze- /errorReport:prompt D:\PROJECTS\CSE168\CSE168_MIRO\SRC\BVH.CPP
^D:\PROJECTS\CSE168\CSE168_MIRO\SRC\CONSOLE.CPP
/c /Zi /nologo /W3 /WX- /O2 /Oi /Oy- /GL /D _MBCS /Gm- /EHsc /MD /GS /Gy /fp:precise /Zc:wchar_t /Zc:forScope /openmp /Fo"Release\\" /Fd"Release\vc100.pdb" /Gd /TP /analyze- /errorReport:prompt D:\PROJECTS\CSE168\CSE168_MIRO\SRC\CONSOLE.CPP
^D:\PROJECTS\CSE168\CSE168_MIRO\SRC\IMAGE.CPP
/c /Zi /nologo /W3 /WX- /O2 /Oi /Oy- /GL /D _MBCS /Gm- /EHsc /MD /GS /Gy /fp:precise /Zc:wchar_t /Zc:forScope /openmp /Fo"Release\\" /Fd"Release\vc100.pdb" /Gd /TP /analyze- /errorReport:prompt D:\PROJECTS\CSE168\CSE168_MIRO\SRC\IMAGE.CPP
^D:\PROJECTS\CSE168\CSE168_MIRO\SRC\MATERIAL.CPP
/c /Zi /nologo /W3 /WX- /O2 /Oi /Oy- /GL /D _MBCS /Gm- /EHsc /MD /GS /Gy /fp:precise /Zc:wchar_t /Zc:forScope /openmp /Fo"Release\\" /Fd"Release\vc100.pdb" /Gd /TP /analyze- /errorReport:prompt D:\PROJECTS\CSE168\CSE168_MIRO\SRC\MATERIAL.CPP
^D:\PROJECTS\CSE168\CSE168_MIRO\SRC\MIROWINDOW.CPP
/c /Zi /nologo /W3 /WX- /O2 /Oi /Oy- /GL /D _MBCS /Gm- /EHsc /MD /GS /Gy /fp:precise /Zc:wchar_t /Zc:forScope /openmp /Fo"Release\\" /Fd"Release\vc100.pdb" /Gd /TP /analyze- /errorReport:prompt D:\PROJECTS\CSE168\CSE168_MIRO\SRC\MIROWINDOW.CPP
^D:\PROJECTS\CSE168\CSE168_MIRO\SRC\PERLIN.CPP
/c /Zi /nologo /W3 /WX- /O2 /Oi /Oy- /GL /D _MBCS /Gm- /EHsc /MD /GS /Gy /fp:precise /Zc:wchar_t /Zc:forScope /openmp /Fo"Release\\" /Fd"Release\vc100.pdb" /Gd /TP /analyze- /errorReport:prompt D:\PROJECTS\CSE168\CSE168_MIRO\SRC\PERLIN.CPP
^D:\PROJECTS\CSE168\CSE168_MIRO\SRC\PFMLOADER.CPP
/c /Zi /nologo /W3 /WX- /O2 /Oi /Oy- /GL /D _MBCS /Gm- /EHsc /MD /GS /Gy /fp:precise /Zc:wchar_t /Zc:forScope /openmp /Fo"Release\\" /Fd"Release\vc100.pdb" /Gd /TP /analyze- /errorReport:prompt D:\PROJECTS\CSE168\CSE168_MIRO\SRC\PFMLOADER.CPP
^D:\PROJECTS\CSE168\CSE168_MIRO\SRC\PHOTONMAP.CPP
/c /Zi /nologo /W3 /WX- /O2 /Oi /Oy- /GL /D _MBCS /Gm- /EHsc /MD /GS /Gy /fp:precise /Zc:wchar_t /Zc:forScope /openmp /Fo"Release\\" /Fd"Release\vc100.pdb" /Gd /TP /analyze- /errorReport:prompt D:\PROJECTS\CSE168\CSE168_MIRO\SRC\PHOTONMAP.CPP
^D:\PROJECTS\CSE168\CSE168_MIRO\SRC\SPHERE.CPP
/c /Zi /nologo /W3 /WX- /O2 /Oi /Oy- /GL /D _MBCS /Gm- /EHsc /MD /GS /Gy /fp:precise /Zc:wchar_t /Zc:forScope /openmp /Fo"Release\\" /Fd"Release\vc100.pdb" /Gd /TP /analyze- /errorReport:prompt D:\PROJECTS\CSE168\CSE168_MIRO\SRC\SPHERE.CPP
^D:\PROJECTS\CSE168\CSE168_MIRO\SRC\TRIANGLEMESHLOAD.CPP
/c /Zi /nologo /W3 /WX- /O2 /Oi /Oy- /GL /D _MBCS /Gm- /EHsc /MD /GS /Gy /fp:precise /Zc:wchar_t /Zc:forScope /openmp /Fo"Release\\" /Fd"Release\vc100.pdb" /Gd /TP /analyze- /errorReport:prompt D:\PROJECTS\CSE168\CSE168_MIRO\SRC\TRIANGLEMESHLOAD.CPP
^D:\PROJECTS\CSE168\CSE168_MIRO\SRC\WORLEY.CPP
/c /Zi /nologo /W3 /WX- /O2 /Oi /Oy- /GL /D _MBCS /Gm- /EHsc /MD /GS /Gy /fp:precise /Zc:wchar_t /Zc:forScope /openmp /Fo"Release\\" /Fd"Release\vc100.pdb" /Gd /TP /analyze- /errorReport:prompt D:\PROJECTS\CSE168\CSE168_MIRO\SRC\WORLEY.CPP
^D:\PROJECTS\CSE168\CSE168_MIRO\SRC\PHOTONMAP.H
/c /Zi /nologo /W3 /WX- /O2 /Oi /Oy- /GL /D _MBCS /Gm- /EHsc /MD /GS /Gy /fp:precise /Zc:wchar_t /Zc:forScope /openmp /Fo"Release\\" /Fd"Release\vc100.pdb" /Gd /TP /analyze- /errorReport:prompt D:\PROJECTS\CSE168\CSE168_MIRO\SRC\PHOTONMAP.H
^D:\PROJECTS\CSE168\CSE168_MIRO\SRC\CAMERA.CPP
/c /Zi /nologo /W3 /WX- /O2 /Oi /Oy- /GL /D _MBCS /Gm- /EHsc /MD /GS /Gy /fp:precise /Zc:wchar_t /Zc:forScope /openmp /Fo"Release\\" /Fd"Release\vc100.pdb" /Gd /TP /analyze- /errorReport:prompt D:\PROJECTS\CSE168\CSE168_MIRO\SRC\CAMERA.CPP
^D:\PROJECTS\CSE168\CSE168_MIRO\SRC\REFLECTIVE.CPP
/c /Zi /nologo /W3 /WX- /O2 /Oi /Oy- /GL /D _MBCS /Gm- /EHsc /MD /GS /Gy /fp:precise /Zc:wchar_t /Zc:forScope /openmp /Fo"Release\\" /Fd"Release\vc100.pdb" /Gd /TP /analyze- /errorReport:prompt D:\PROJECTS\CSE168\CSE168_MIRO\SRC\REFLECTIVE.CPP
^D:\PROJECTS\CSE168\CSE168_MIRO\SRC\REFRACTIVE.CPP
/c /Zi /nologo /W3 /WX- /O2 /Oi /Oy- /GL /D _MBCS /Gm- /EHsc /MD /GS /Gy /fp:precise /Zc:wchar_t /Zc:forScope /openmp /Fo"Release\\" /Fd"Release\vc100.pdb" /Gd /TP /analyze- /errorReport:prompt D:\PROJECTS\CSE168\CSE168_MIRO\SRC\REFRACTIVE.CPP
^D:\PROJECTS\CSE168\CSE168_MIRO\SRC\STONETEXTURE.CPP
/c /Zi /nologo /W3 /WX- /O2 /Oi /Oy- /GL /D _MBCS /Gm- /EHsc /MD /GS /Gy /fp:precise /Zc:wchar_t /Zc:forScope /openmp /Fo"Release\\" /Fd"Release\vc100.pdb" /Gd /TP /analyze- /errorReport:prompt D:\PROJECTS\CSE168\CSE168_MIRO\SRC\STONETEXTURE.CPP
^D:\PROJECTS\CSE168\CSE168_MIRO\SRC\TRIANGLEMESH.CPP
/c /Zi /nologo /W3 /WX- /O2 /Oi /Oy- /GL /D _MBCS /Gm- /EHsc /MD /GS /Gy /fp:precise /Zc:wchar_t /Zc:forScope /openmp /Fo"Release\\" /Fd"Release\vc100.pdb" /Gd /TP /analyze- /errorReport:prompt D:\PROJECTS\CSE168\CSE168_MIRO\SRC\TRIANGLEMESH.CPP
^D:\PROJECTS\CSE168\CSE168_MIRO\SRC\ASSIGNMENT1.CPP
/c /Zi /nologo /W3 /WX- /O2 /Oi /Oy- /GL /D _MBCS /Gm- /EHsc /MD /GS /Gy /fp:precise /Zc:wchar_t /Zc:forScope /openmp /Fo"Release\\" /Fd"Release\vc100.pdb" /Gd /TP /analyze- /errorReport:prompt D:\PROJECTS\CSE168\CSE168_MIRO\SRC\ASSIGNMENT1.CPP
^D:\PROJECTS\CSE168\CSE168_MIRO\SRC\TRIANGLE.CPP
/c /Zi /nologo /W3 /WX- /O2 /Oi /Oy- /GL /D _MBCS /Gm- /EHsc /MD /GS /Gy /fp:precise /Zc:wchar_t /Zc:forScope /openmp /Fo"Release\\" /Fd"Release\vc100.pdb" /Gd /TP /analyze- /errorReport:prompt D:\PROJECTS\CSE168\CSE168_MIRO\SRC\TRIANGLE.CPP
^D:\PROJECTS\CSE168\CSE168_MIRO\SRC\AABB.CPP
/c /Zi /nologo /W3 /WX- /O2 /Oi /Oy- /GL /D _MBCS /Gm- /EHsc /MD /GS /Gy /fp:precise /Zc:wchar_t /Zc:forScope /openmp /Fo"Release\\" /Fd"Release\vc100.pdb" /Gd /TP /analyze- /errorReport:prompt D:\PROJECTS\CSE168\CSE168_MIRO\SRC\AABB.CPP
^D:\PROJECTS\CSE168\CSE168_MIRO\SRC\ASSIGNMENT2.CPP
/c /Zi /nologo /W3 /WX- /O2 /Oi /Oy- /GL /D _MBCS /Gm- /EHsc /MD /GS /Gy /fp:precise /Zc:wchar_t /Zc:forScope /openmp /Fo"Release\\" /Fd"Release\vc100.pdb" /Gd /TP /analyze- /errorReport:prompt D:\PROJECTS\CSE168\CSE168_MIRO\SRC\ASSIGNMENT2.CPP
^D:\PROJECTS\CSE168\CSE168_MIRO\SRC\MAIN.CPP
/c /Zi /nologo /W3 /WX- /O2 /Oi /Oy- /GL /D _MBCS /Gm- /EHsc /MD /GS /Gy /fp:precise /Zc:wchar_t /Zc:forScope /openmp /Fo"Release\\" /Fd"Release\vc100.pdb" /Gd /TP /analyze- /errorReport:prompt D:\PROJECTS\CSE168\CSE168_MIRO\SRC\MAIN.CPP
^D:\PROJECTS\CSE168\CSE168_MIRO\SRC\LAMBERT.CPP
/c /Zi /nologo /W3 /WX- /O2 /Oi /Oy- /GL /D _MBCS /Gm- /EHsc /MD /GS /Gy /fp:precise /Zc:wchar_t /Zc:forScope /openmp /Fo"Release\\" /Fd"Release\vc100.pdb" /Gd /TP /analyze- /errorReport:prompt D:\PROJECTS\CSE168\CSE168_MIRO\SRC\LAMBERT.CPP
^D:\PROJECTS\CSE168\CSE168_MIRO\SRC\SCENE.CPP
/c /Zi /nologo /W3 /WX- /O2 /Oi /Oy- /GL /D _MBCS /Gm- /EHsc /MD /GS /Gy /fp:precise /Zc:wchar_t /Zc:forScope /openmp /Fo"Release\\" /Fd"Release\vc100.pdb" /Gd /TP /analyze- /errorReport:prompt D:\PROJECTS\CSE168\CSE168_MIRO\SRC\SCENE.CPP
