^D:\PROJECTS\CSE168\CSE168_MIRO\SRC\AABB.CPP|D:\PROJECTS\CSE168\CSE168_MIRO\SRC\ASSIGNMENT1.CPP|D:\PROJECTS\CSE168\CSE168_MIRO\SRC\ASSIGNMENT2.CPP|D:\PROJECTS\CSE168\CSE168_MIRO\SRC\BLPATCH.CPP|D:\PROJECTS\CSE168\CSE168_MIRO\SRC\BVH.CPP|D:\PROJECTS\CSE168\CSE168_MIRO\SRC\CAMERA.CPP|D:\PROJECTS\CSE168\CSE168_MIRO\SRC\CONSOLE.CPP|D:\PROJECTS\CSE168\CSE168_MIRO\SRC\IMAGE.CPP|D:\PROJECTS\CSE168\CSE168_MIRO\SRC\LAMBERT.CPP|D:\PROJECTS\CSE168\CSE168_MIRO\SRC\MAIN.CPP|D:\PROJECTS\CSE168\CSE168_MIRO\SRC\MATERIAL.CPP|D:\PROJECTS\CSE168\CSE168_MIRO\SRC\MIROWINDOW.CPP|D:\PROJECTS\CSE168\CSE168_MIRO\SRC\PERLIN.CPP|D:\PROJECTS\CSE168\CSE168_MIRO\SRC\PFMLOADER.CPP|D:\PROJECTS\CSE168\CSE168_MIRO\SRC\PHOTONMAP.CPP|D:\PROJECTS\CSE168\CSE168_MIRO\SRC\PHOTONMAP.H|D:\PROJECTS\CSE168\CSE168_MIRO\SRC\REFLECTIVE.CPP|D:\PROJECTS\CSE168\CSE168_MIRO\SRC\REFRACTIVE.CPP|D:\PROJECTS\CSE168\CSE168_MIRO\SRC\SCENE.CPP|D:\PROJECTS\CSE168\CSE168_MIRO\SRC\SPHERE.CPP|D:\PROJECTS\CSE168\CSE168_MIRO\SRC\STONETEXTURE.CPP|D:\PROJECTS\CSE168\CSE168_MIRO\SRC\TRIANGLE.CPP|D:\PROJECTS\CSE168\CSE168_MIRO\SRC\TRIANGLEMESH.CPP|D:\PROJECTS\CSE168\CSE168_MIRO\SRC\TRIANGLEMESHLOAD.CPP|D:\PROJECTS\CSE168\CSE168_MIRO\SRC\WORLEY.CPP
D:\PROJECTS\CSE168\CSE168_MIRO\RELEASE\SPHERE.OBJ
D:\PROJECTS\CSE168\CSE168_MIRO\RELEASE\SCENE.OBJ
D:\PROJECTS\CSE168\CSE168_MIRO\RELEASE\REFRACTIVE.OBJ
D:\PROJECTS\CSE168\CSE168_MIRO\RELEASE\REFLECTIVE.OBJ
D:\PROJECTS\CSE168\CSE168_MIRO\RELEASE\PHOTONMAP.OBJ
D:\PROJECTS\CSE168\CSE168_MIRO\RELEASE\PFMLOADER.OBJ
D:\PROJECTS\CSE168\CSE168_MIRO\RELEASE\PERLIN.OBJ
D:\PROJECTS\CSE168\CSE168_MIRO\RELEASE\MIROWINDOW.OBJ
D:\PROJECTS\CSE168\CSE168_MIRO\RELEASE\MATERIAL.OBJ
D:\PROJECTS\CSE168\CSE168_MIRO\RELEASE\MAIN.OBJ
D:\PROJECTS\CSE168\CSE168_MIRO\RELEASE\LAMBERT.OBJ
D:\PROJECTS\CSE168\CSE168_MIRO\RELEASE\IMAGE.OBJ
D:\PROJECTS\CSE168\CSE168_MIRO\RELEASE\CONSOLE.OBJ
D:\PROJECTS\CSE168\CSE168_MIRO\RELEASE\CAMERA.OBJ
D:\PROJECTS\CSE168\CSE168_MIRO\RELEASE\BVH.OBJ
D:\PROJECTS\CSE168\CSE168_MIRO\RELEASE\BLPATCH.OBJ
D:\PROJECTS\CSE168\CSE168_MIRO\RELEASE\ASSIGNMENT2.OBJ
D:\PROJECTS\CSE168\CSE168_MIRO\RELEASE\ASSIGNMENT1.OBJ
D:\PROJECTS\CSE168\CSE168_MIRO\RELEASE\AABB.OBJ
D:\PROJECTS\CSE168\CSE168_MIRO\RELEASE\WORLEY.OBJ
D:\PROJECTS\CSE168\CSE168_MIRO\RELEASE\TRIANGLEMESHLOAD.OBJ
D:\PROJECTS\CSE168\CSE168_MIRO\RELEASE\TRIANGLEMESH.OBJ
D:\PROJECTS\CSE168\CSE168_MIRO\RELEASE\TRIANGLE.OBJ
D:\PROJECTS\CSE168\CSE168_MIRO\RELEASE\STONETEXTURE.OBJ
^D:\PROJECTS\CSE168\CSE168_MIRO\SRC\BLPATCH.CPP
D:\PROJECTS\CSE168\CSE168_MIRO\RELEASE\VC100.PDB
^D:\PROJECTS\CSE168\CSE168_MIRO\SRC\BVH.CPP
D:\PROJECTS\CSE168\CSE168_MIRO\RELEASE\VC100.PDB
^D:\PROJECTS\CSE168\CSE168_MIRO\SRC\CONSOLE.CPP
D:\PROJECTS\CSE168\CSE168_MIRO\RELEASE\VC100.PDB
^D:\PROJECTS\CSE168\CSE168_MIRO\SRC\IMAGE.CPP
D:\PROJECTS\CSE168\CSE168_MIRO\RELEASE\VC100.PDB
^D:\PROJECTS\CSE168\CSE168_MIRO\SRC\MATERIAL.CPP
D:\PROJECTS\CSE168\CSE168_MIRO\RELEASE\VC100.PDB
^D:\PROJECTS\CSE168\CSE168_MIRO\SRC\MIROWINDOW.CPP
D:\PROJECTS\CSE168\CSE168_MIRO\RELEASE\VC100.PDB
^D:\PROJECTS\CSE168\CSE168_MIRO\SRC\PERLIN.CPP
D:\PROJECTS\CSE168\CSE168_MIRO\RELEASE\VC100.PDB
^D:\PROJECTS\CSE168\CSE168_MIRO\SRC\PFMLOADER.CPP
D:\PROJECTS\CSE168\CSE168_MIRO\RELEASE\VC100.PDB
^D:\PROJECTS\CSE168\CSE168_MIRO\SRC\PHOTONMAP.CPP
D:\PROJECTS\CSE168\CSE168_MIRO\RELEASE\VC100.PDB
^D:\PROJECTS\CSE168\CSE168_MIRO\SRC\SPHERE.CPP
D:\PROJECTS\CSE168\CSE168_MIRO\RELEASE\VC100.PDB
^D:\PROJECTS\CSE168\CSE168_MIRO\SRC\TRIANGLEMESHLOAD.CPP
D:\PROJECTS\CSE168\CSE168_MIRO\RELEASE\VC100.PDB
^D:\PROJECTS\CSE168\CSE168_MIRO\SRC\WORLEY.CPP
D:\PROJECTS\CSE168\CSE168_MIRO\RELEASE\VC100.PDB
^D:\PROJECTS\CSE168\CSE168_MIRO\SRC\AABB.CPP|D:\PROJECTS\CSE168\CSE168_MIRO\SRC\TRIANGLE.CPP
D:\PROJECTS\CSE168\CSE168_MIRO\RELEASE\TRIANGLE.OBJ
D:\PROJECTS\CSE168\CSE168_MIRO\RELEASE\AABB.OBJ
^D:\PROJECTS\CSE168\CSE168_MIRO\SRC\AABB.CPP|D:\PROJECTS\CSE168\CSE168_MIRO\SRC\MAIN.CPP
D:\PROJECTS\CSE168\CSE168_MIRO\RELEASE\MAIN.OBJ
D:\PROJECTS\CSE168\CSE168_MIRO\RELEASE\AABB.OBJ
^D:\PROJECTS\CSE168\CSE168_MIRO\SRC\AABB.CPP|D:\PROJECTS\CSE168\CSE168_MIRO\SRC\SCENE.CPP
D:\PROJECTS\CSE168\CSE168_MIRO\RELEASE\SCENE.OBJ
D:\PROJECTS\CSE168\CSE168_MIRO\RELEASE\AABB.OBJ
^D:\PROJECTS\CSE168\CSE168_MIRO\SRC\LAMBERT.CPP|D:\PROJECTS\CSE168\CSE168_MIRO\SRC\TRIANGLE.CPP
D:\PROJECTS\CSE168\CSE168_MIRO\RELEASE\TRIANGLE.OBJ
D:\PROJECTS\CSE168\CSE168_MIRO\RELEASE\LAMBERT.OBJ
^D:\PROJECTS\CSE168\CSE168_MIRO\SRC\SCENE.CPP|D:\PROJECTS\CSE168\CSE168_MIRO\SRC\TRIANGLE.CPP
D:\PROJECTS\CSE168\CSE168_MIRO\RELEASE\TRIANGLE.OBJ
D:\PROJECTS\CSE168\CSE168_MIRO\RELEASE\SCENE.OBJ
^D:\PROJECTS\CSE168\CSE168_MIRO\SRC\ASSIGNMENT2.CPP|D:\PROJECTS\CSE168\CSE168_MIRO\SRC\MAIN.CPP|D:\PROJECTS\CSE168\CSE168_MIRO\SRC\PHOTONMAP.H
D:\PROJECTS\CSE168\CSE168_MIRO\RELEASE\PHOTONMAP.OBJ
D:\PROJECTS\CSE168\CSE168_MIRO\RELEASE\MAIN.OBJ
D:\PROJECTS\CSE168\CSE168_MIRO\RELEASE\ASSIGNMENT2.OBJ
^D:\PROJECTS\CSE168\CSE168_MIRO\SRC\PHOTONMAP.H
D:\PROJECTS\CSE168\CSE168_MIRO\RELEASE\PHOTONMAP.OBJ
D:\PROJECTS\CSE168\CSE168_MIRO\RELEASE\VC100.PDB
^D:\PROJECTS\CSE168\CSE168_MIRO\SRC\ASSIGNMENT1.CPP|D:\PROJECTS\CSE168\CSE168_MIRO\SRC\ASSIGNMENT2.CPP|D:\PROJECTS\CSE168\CSE168_MIRO\SRC\SCENE.CPP
D:\PROJECTS\CSE168\CSE168_MIRO\RELEASE\SCENE.OBJ
D:\PROJECTS\CSE168\CSE168_MIRO\RELEASE\ASSIGNMENT2.OBJ
D:\PROJECTS\CSE168\CSE168_MIRO\RELEASE\ASSIGNMENT1.OBJ
^D:\PROJECTS\CSE168\CSE168_MIRO\SRC\ASSIGNMENT1.CPP|D:\PROJECTS\CSE168\CSE168_MIRO\SRC\ASSIGNMENT2.CPP|D:\PROJECTS\CSE168\CSE168_MIRO\SRC\CAMERA.CPP|D:\PROJECTS\CSE168\CSE168_MIRO\SRC\LAMBERT.CPP|D:\PROJECTS\CSE168\CSE168_MIRO\SRC\MAIN.CPP|D:\PROJECTS\CSE168\CSE168_MIRO\SRC\REFLECTIVE.CPP|D:\PROJECTS\CSE168\CSE168_MIRO\SRC\REFRACTIVE.CPP|D:\PROJECTS\CSE168\CSE168_MIRO\SRC\SCENE.CPP|D:\PROJECTS\CSE168\CSE168_MIRO\SRC\STONETEXTURE.CPP|D:\PROJECTS\CSE168\CSE168_MIRO\SRC\TRIANGLEMESH.CPP
D:\PROJECTS\CSE168\CSE168_MIRO\RELEASE\MAIN.OBJ
D:\PROJECTS\CSE168\CSE168_MIRO\RELEASE\ASSIGNMENT2.OBJ
D:\PROJECTS\CSE168\CSE168_MIRO\RELEASE\ASSIGNMENT1.OBJ
D:\PROJECTS\CSE168\CSE168_MIRO\RELEASE\TRIANGLEMESH.OBJ
D:\PROJECTS\CSE168\CSE168_MIRO\RELEASE\STONETEXTURE.OBJ
D:\PROJECTS\CSE168\CSE168_MIRO\RELEASE\SCENE.OBJ
D:\PROJECTS\CSE168\CSE168_MIRO\RELEASE\REFRACTIVE.OBJ
D:\PROJECTS\CSE168\CSE168_MIRO\RELEASE\REFLECTIVE.OBJ
D:\PROJECTS\CSE168\CSE168_MIRO\RELEASE\CAMERA.OBJ
^D:\PROJECTS\CSE168\CSE168_MIRO\SRC\CAMERA.CPP
D:\PROJECTS\CSE168\CSE168_MIRO\RELEASE\CAMERA.OBJ
^D:\PROJECTS\CSE168\CSE168_MIRO\SRC\REFLECTIVE.CPP
D:\PROJECTS\CSE168\CSE168_MIRO\RELEASE\REFLECTIVE.OBJ
^D:\PROJECTS\CSE168\CSE168_MIRO\SRC\REFRACTIVE.CPP
D:\PROJECTS\CSE168\CSE168_MIRO\RELEASE\REFRACTIVE.OBJ
^D:\PROJECTS\CSE168\CSE168_MIRO\SRC\STONETEXTURE.CPP
D:\PROJECTS\CSE168\CSE168_MIRO\RELEASE\STONETEXTURE.OBJ
^D:\PROJECTS\CSE168\CSE168_MIRO\SRC\TRIANGLEMESH.CPP
D:\PROJECTS\CSE168\CSE168_MIRO\RELEASE\TRIANGLEMESH.OBJ
^D:\PROJECTS\CSE168\CSE168_MIRO\SRC\ASSIGNMENT1.CPP
D:\PROJECTS\CSE168\CSE168_MIRO\RELEASE\ASSIGNMENT1.OBJ
^D:\PROJECTS\CSE168\CSE168_MIRO\SRC\MAIN.CPP|D:\PROJECTS\CSE168\CSE168_MIRO\SRC\TRIANGLE.CPP
D:\PROJECTS\CSE168\CSE168_MIRO\RELEASE\MAIN.OBJ
D:\PROJECTS\CSE168\CSE168_MIRO\RELEASE\TRIANGLE.OBJ
^D:\PROJECTS\CSE168\CSE168_MIRO\SRC\TRIANGLE.CPP
D:\PROJECTS\CSE168\CSE168_MIRO\RELEASE\TRIANGLE.OBJ
D:\PROJECTS\CSE168\CSE168_MIRO\RELEASE\VC100.PDB
^D:\PROJECTS\CSE168\CSE168_MIRO\SRC\ASSIGNMENT2.CPP|D:\PROJECTS\CSE168\CSE168_MIRO\SRC\LAMBERT.CPP
D:\PROJECTS\CSE168\CSE168_MIRO\RELEASE\ASSIGNMENT2.OBJ
D:\PROJECTS\CSE168\CSE168_MIRO\RELEASE\LAMBERT.OBJ
^D:\PROJECTS\CSE168\CSE168_MIRO\SRC\AABB.CPP
D:\PROJECTS\CSE168\CSE168_MIRO\RELEASE\AABB.OBJ
D:\PROJECTS\CSE168\CSE168_MIRO\RELEASE\VC100.PDB
^D:\PROJECTS\CSE168\CSE168_MIRO\SRC\ASSIGNMENT2.CPP
D:\PROJECTS\CSE168\CSE168_MIRO\RELEASE\ASSIGNMENT2.OBJ
D:\PROJECTS\CSE168\CSE168_MIRO\RELEASE\VC100.PDB
^D:\PROJECTS\CSE168\CSE168_MIRO\SRC\MAIN.CPP
D:\PROJECTS\CSE168\CSE168_MIRO\RELEASE\MAIN.OBJ
D:\PROJECTS\CSE168\CSE168_MIRO\RELEASE\VC100.PDB
^D:\PROJECTS\CSE168\CSE168_MIRO\SRC\LAMBERT.CPP
D:\PROJECTS\CSE168\CSE168_MIRO\RELEASE\LAMBERT.OBJ
D:\PROJECTS\CSE168\CSE168_MIRO\RELEASE\VC100.PDB
^D:\PROJECTS\CSE168\CSE168_MIRO\SRC\SCENE.CPP
D:\PROJECTS\CSE168\CSE168_MIRO\RELEASE\SCENE.OBJ
D:\PROJECTS\CSE168\CSE168_MIRO\RELEASE\VC100.PDB
